EESchema Schematic File Version 2
LIBS:power
LIBS:device
LIBS:transistors
LIBS:conn
LIBS:linear
LIBS:regul
LIBS:74xx
LIBS:cmos4000
LIBS:adc-dac
LIBS:memory
LIBS:xilinx
LIBS:microcontrollers
LIBS:dsp
LIBS:microchip
LIBS:analog_switches
LIBS:motorola
LIBS:texas
LIBS:intel
LIBS:audio
LIBS:interface
LIBS:digital-audio
LIBS:philips
LIBS:display
LIBS:cypress
LIBS:siliconi
LIBS:opto
LIBS:atmel
LIBS:contrib
LIBS:valves
LIBS:project-cache
EELAYER 25 0
EELAYER END
$Descr A4 11693 8268
encoding utf-8
Sheet 1 1
Title ""
Date ""
Rev ""
Comp ""
Comment1 ""
Comment2 ""
Comment3 ""
Comment4 ""
$EndDescr
$Comp
L MC34063 U1
U 1 1 565D794F
P 6250 3450
F 0 "U1" H 6400 3800 60  0000 L CNN
F 1 "MC34063" H 6350 3100 60  0000 L CNN
F 2 "Power_Integrations:SO-8" H 6250 3450 60  0001 C CNN
F 3 "" H 6250 3450 60  0000 C CNN
	1    6250 3450
	1    0    0    -1  
$EndComp
$Comp
L CP C1
U 1 1 565D79C2
P 4400 3150
F 0 "C1" H 4425 3250 50  0000 L CNN
F 1 "100uF" H 4425 3050 50  0000 L CNN
F 2 "Capacitors_ThroughHole:C_Radial_D6.3_L11.2_P2.5" H 4438 3000 30  0001 C CNN
F 3 "" H 4400 3150 60  0000 C CNN
	1    4400 3150
	1    0    0    -1  
$EndComp
$Comp
L D_Schottky D1
U 1 1 565D7B0F
P 4150 2900
F 0 "D1" H 4150 3000 50  0000 C CNN
F 1 "SS14" H 4150 2800 50  0000 C CNN
F 2 "Diodes_SMD:DO-214BA" H 4150 2900 60  0001 C CNN
F 3 "" H 4150 2900 60  0000 C CNN
	1    4150 2900
	-1   0    0    -1  
$EndComp
Wire Wire Line
	4300 2900 4400 2900
Wire Wire Line
	4400 2800 4400 3000
Wire Wire Line
	4000 2900 3900 2900
$Comp
L CONN_01X02 P1
U 1 1 565D7C2E
P 3700 2950
F 0 "P1" H 3700 3100 50  0000 C CNN
F 1 "Vin" V 3800 2950 50  0000 C CNN
F 2 "Pin_Headers:Pin_Header_Straight_1x02" H 3700 2950 60  0001 C CNN
F 3 "" H 3700 2950 60  0000 C CNN
	1    3700 2950
	-1   0    0    1   
$EndComp
Wire Wire Line
	3900 3000 4000 3000
Wire Wire Line
	4000 3000 4000 3100
$Comp
L GND #PWR01
U 1 1 565D7C9F
P 4000 3100
F 0 "#PWR01" H 4000 2850 50  0001 C CNN
F 1 "GND" H 4000 2950 50  0000 C CNN
F 2 "" H 4000 3100 60  0000 C CNN
F 3 "" H 4000 3100 60  0000 C CNN
	1    4000 3100
	1    0    0    -1  
$EndComp
$Comp
L GND #PWR02
U 1 1 565D7CBB
P 4400 3400
F 0 "#PWR02" H 4400 3150 50  0001 C CNN
F 1 "GND" H 4400 3250 50  0000 C CNN
F 2 "" H 4400 3400 60  0000 C CNN
F 3 "" H 4400 3400 60  0000 C CNN
	1    4400 3400
	1    0    0    -1  
$EndComp
Wire Wire Line
	4400 3300 4400 3400
Wire Wire Line
	6250 2950 6250 2800
Wire Wire Line
	6250 3950 6250 4150
$Comp
L GND #PWR03
U 1 1 565D7D38
P 6250 4150
F 0 "#PWR03" H 6250 3900 50  0001 C CNN
F 1 "GND" H 6250 4000 50  0000 C CNN
F 2 "" H 6250 4150 60  0000 C CNN
F 3 "" H 6250 4150 60  0000 C CNN
	1    6250 4150
	1    0    0    -1  
$EndComp
$Comp
L +36V #PWR04
U 1 1 565D7D6B
P 6250 2800
F 0 "#PWR04" H 6250 2650 50  0001 C CNN
F 1 "+36V" H 6250 2940 50  0000 C CNN
F 2 "" H 6250 2800 60  0000 C CNN
F 3 "" H 6250 2800 60  0000 C CNN
	1    6250 2800
	1    0    0    -1  
$EndComp
$Comp
L +36V #PWR05
U 1 1 565D7D87
P 4400 2800
F 0 "#PWR05" H 4400 2650 50  0001 C CNN
F 1 "+36V" H 4400 2940 50  0000 C CNN
F 2 "" H 4400 2800 60  0000 C CNN
F 3 "" H 4400 2800 60  0000 C CNN
	1    4400 2800
	1    0    0    -1  
$EndComp
Connection ~ 4400 2900
$Comp
L CP C2
U 1 1 565D7E0C
P 8300 3750
F 0 "C2" H 8325 3850 50  0000 L CNN
F 1 "100uF" H 8325 3650 50  0000 L CNN
F 2 "Capacitors_ThroughHole:C_Radial_D6.3_L11.2_P2.5" H 8338 3600 30  0001 C CNN
F 3 "" H 8300 3750 60  0000 C CNN
	1    8300 3750
	1    0    0    -1  
$EndComp
$Comp
L INDUCTOR_SMALL L1
U 1 1 565D7EC9
P 7950 3500
F 0 "L1" H 7950 3600 50  0000 C CNN
F 1 "68uH" H 7950 3450 50  0000 C CNN
F 2 "Choke_Toroid_ThroughHole:Choke_Toroid_6,5x13mm_Vertical" H 7950 3500 60  0001 C CNN
F 3 "" H 7950 3500 60  0000 C CNN
	1    7950 3500
	1    0    0    -1  
$EndComp
$Comp
L D_Schottky D2
U 1 1 565D7F74
P 7600 3750
F 0 "D2" H 7600 3850 50  0000 C CNN
F 1 "SS14" H 7600 3650 50  0000 C CNN
F 2 "Diodes_SMD:DO-214BA" H 7600 3750 60  0001 C CNN
F 3 "" H 7600 3750 60  0000 C CNN
	1    7600 3750
	0    -1   1    0   
$EndComp
$Comp
L R R3
U 1 1 565D805C
P 7400 3900
F 0 "R3" V 7480 3900 50  0000 C CNN
F 1 "1K" V 7400 3900 50  0000 C CNN
F 2 "Resistors_SMD:R_0603" V 7330 3900 30  0001 C CNN
F 3 "" H 7400 3900 30  0000 C CNN
	1    7400 3900
	-1   0    0    -1  
$EndComp
$Comp
L R R2
U 1 1 565D8091
P 7400 3250
F 0 "R2" V 7480 3250 50  0000 C CNN
F 1 "3K" V 7400 3250 50  0000 C CNN
F 2 "Resistors_SMD:R_0603" V 7330 3250 30  0001 C CNN
F 3 "" H 7400 3250 30  0000 C CNN
	1    7400 3250
	-1   0    0    -1  
$EndComp
$Comp
L R R1
U 1 1 565D80E8
P 5100 3050
F 0 "R1" V 5180 3050 50  0000 C CNN
F 1 "0R2" V 5100 3050 50  0000 C CNN
F 2 "Local:shunt2_0R2" V 5030 3050 30  0001 C CNN
F 3 "" H 5100 3050 30  0000 C CNN
	1    5100 3050
	-1   0    0    -1  
$EndComp
Wire Wire Line
	5100 3200 5100 3300
Wire Wire Line
	5100 3300 5400 3300
Wire Wire Line
	5400 3600 5300 3600
Wire Wire Line
	5300 3600 5300 3700
Wire Wire Line
	5100 2900 5100 2800
$Comp
L +36V #PWR06
U 1 1 565D8208
P 5100 2800
F 0 "#PWR06" H 5100 2650 50  0001 C CNN
F 1 "+36V" H 5100 2940 50  0000 C CNN
F 2 "" H 5100 2800 60  0000 C CNN
F 3 "" H 5100 2800 60  0000 C CNN
	1    5100 2800
	1    0    0    -1  
$EndComp
Wire Wire Line
	7100 3250 7200 3250
Wire Wire Line
	7200 3350 7100 3350
Wire Wire Line
	7200 2500 7200 3350
Wire Wire Line
	5300 3300 5300 2500
Wire Wire Line
	5300 2500 7200 2500
Connection ~ 7200 3250
Connection ~ 5300 3300
$Comp
L C C3
U 1 1 565D8313
P 5300 3850
F 0 "C3" H 5325 3950 50  0000 L CNN
F 1 "61pF" H 5325 3750 50  0000 L CNN
F 2 "Capacitors_SMD:C_0603" H 5338 3700 30  0001 C CNN
F 3 "" H 5300 3850 60  0000 C CNN
	1    5300 3850
	1    0    0    -1  
$EndComp
$Comp
L GND #PWR07
U 1 1 565D84B1
P 5300 4150
F 0 "#PWR07" H 5300 3900 50  0001 C CNN
F 1 "GND" H 5300 4000 50  0000 C CNN
F 2 "" H 5300 4150 60  0000 C CNN
F 3 "" H 5300 4150 60  0000 C CNN
	1    5300 4150
	1    0    0    -1  
$EndComp
Wire Wire Line
	5300 4000 5300 4150
Wire Wire Line
	7100 3500 7700 3500
Wire Wire Line
	7600 3500 7600 3600
Wire Wire Line
	8200 3500 8300 3500
Wire Wire Line
	8300 3400 8300 3600
Wire Wire Line
	7600 3900 7600 4000
Wire Wire Line
	7600 4000 8300 4000
Wire Wire Line
	8300 3900 8300 4150
$Comp
L +5V #PWR08
U 1 1 565D882F
P 8300 3400
F 0 "#PWR08" H 8300 3250 50  0001 C CNN
F 1 "+5V" H 8300 3540 50  0000 C CNN
F 2 "" H 8300 3400 60  0000 C CNN
F 3 "" H 8300 3400 60  0000 C CNN
	1    8300 3400
	1    0    0    -1  
$EndComp
Connection ~ 8300 3500
Wire Wire Line
	7100 3650 7400 3650
Wire Wire Line
	7400 3400 7400 3750
Connection ~ 7600 3500
Connection ~ 7400 3650
Wire Wire Line
	7400 3100 7400 3000
$Comp
L +5V #PWR09
U 1 1 565D8ABA
P 7400 3000
F 0 "#PWR09" H 7400 2850 50  0001 C CNN
F 1 "+5V" H 7400 3140 50  0000 C CNN
F 2 "" H 7400 3000 60  0000 C CNN
F 3 "" H 7400 3000 60  0000 C CNN
	1    7400 3000
	1    0    0    -1  
$EndComp
Wire Wire Line
	7400 4050 7400 4150
$Comp
L GND #PWR010
U 1 1 565D8B38
P 7400 4150
F 0 "#PWR010" H 7400 3900 50  0001 C CNN
F 1 "GND" H 7400 4000 50  0000 C CNN
F 2 "" H 7400 4150 60  0000 C CNN
F 3 "" H 7400 4150 60  0000 C CNN
	1    7400 4150
	1    0    0    -1  
$EndComp
$Comp
L CONN_01X02 P2
U 1 1 565D8CCD
P 9000 3150
F 0 "P2" H 9000 3300 50  0000 C CNN
F 1 "Vout" V 9100 3150 50  0000 C CNN
F 2 "Pin_Headers:Pin_Header_Straight_1x02" H 9000 3150 60  0001 C CNN
F 3 "" H 9000 3150 60  0000 C CNN
	1    9000 3150
	1    0    0    1   
$EndComp
Wire Wire Line
	8800 3100 8700 3100
Wire Wire Line
	8700 3100 8700 3000
$Comp
L +5V #PWR011
U 1 1 565D8EF3
P 8700 3000
F 0 "#PWR011" H 8700 2850 50  0001 C CNN
F 1 "+5V" H 8700 3140 50  0000 C CNN
F 2 "" H 8700 3000 60  0000 C CNN
F 3 "" H 8700 3000 60  0000 C CNN
	1    8700 3000
	1    0    0    -1  
$EndComp
Wire Wire Line
	8800 3200 8700 3200
Wire Wire Line
	8700 3200 8700 3300
$Comp
L GND #PWR012
U 1 1 565D8F57
P 8700 3300
F 0 "#PWR012" H 8700 3050 50  0001 C CNN
F 1 "GND" H 8700 3150 50  0000 C CNN
F 2 "" H 8700 3300 60  0000 C CNN
F 3 "" H 8700 3300 60  0000 C CNN
	1    8700 3300
	1    0    0    -1  
$EndComp
Connection ~ 8300 4000
$Comp
L GND #PWR013
U 1 1 565D8FBE
P 8300 4150
F 0 "#PWR013" H 8300 3900 50  0001 C CNN
F 1 "GND" H 8300 4000 50  0000 C CNN
F 2 "" H 8300 4150 60  0000 C CNN
F 3 "" H 8300 4150 60  0000 C CNN
	1    8300 4150
	1    0    0    -1  
$EndComp
Text Notes 1100 7000 0    60   ~ 0
/* Shunt calculation (maxima):\n * p - special resistance of single wire [Ohm*mm^2/mm]\n * L - length of single wire [mm]\n * S - cross sectional area of single wire [mm^2]\n * N - number of parallel wires\n * d - diameter of single wire [mm^2]\n * R - resistance of shunt [Ohm]\n * I - current through single wire [A]\n * P - power emitted by single wire [W]\n */\nQ1: R = p * L / (S * N);\nQ2: S = %pi * (d / 2) ^ 2;\nQ3: Q1, Q2;\nQ4: solve(Q3, L);\nQ5: P = (I / N) ^ 2 * R;\nC1: [R=0.2, d=0.3, p=1.5e-3, I=0.5, N=2];\nR1: Q4, C1, numer;\nR2: Q5, C1, numer;\nR3: Q2, C1, numer;
Text Notes 3650 7300 0    60   ~ 0
/* Calculated shunt parameters: */\nL=18.84955592153876\nP=0.0125\nS=0.07068583470577035
Text Notes 5800 5300 0    60   ~ 0
/* Vin:3-40V Vout:3-35V, Iout:0<1.5A, Vripple:?V, Fmin:?Hz */\nC1: [ Vin=40, Vout=5, Iout=0.5, Vripple=0.25, Fmin=90e3 ];
Text Notes 5800 6150 0    60   ~ 0
Ct=61 pF\nIpk=1A\nRsc=0.3 Ohm\nLmin=52 uH\nCo=69 uF\nR1=1K\nR2=3K (5V)
$EndSCHEMATC
