(module shunt2_0R2 (layer F.Cu) (tedit 565DA830)
  (fp_text reference REF** (at -0.75 0 90) (layer F.SilkS)
    (effects (font (size 1 1) (thickness 0.15)))
  )
  (fp_text value shunt2_0R2 (at 0.5 0 90) (layer F.Fab)
    (effects (font (size 1 1) (thickness 0.15)))
  )
  (fp_line (start 0.5 -9.5) (end 0.5 9.5) (layer F.SilkS) (width 0.15))
  (fp_line (start -0.5 -9.5) (end -0.5 9.5) (layer F.SilkS) (width 0.15))
  (pad 1 thru_hole circle (at -0.5 10.25) (size 1.524 1.524) (drill 0.508) (layers *.Cu *.Mask F.SilkS))
  (pad 1 thru_hole circle (at 0.5 10.25) (size 1.524 1.524) (drill 0.508) (layers *.Cu *.Mask F.SilkS))
  (pad 2 thru_hole oval (at -0.5 -10.25) (size 1.524 1.524) (drill 0.508) (layers *.Cu *.Mask F.SilkS))
  (pad 2 thru_hole circle (at 0.5 -10.25) (size 1.524 1.524) (drill 0.508) (layers *.Cu *.Mask F.SilkS))
)
